{
	"name": "Stock - CTR (201950)",
	"description": "",
	"version": "1.0",
	"culture": "en-US",
	"modifiedTime": "2019-12-02T14:44:10.9280666+00:00",
	"pbi:mashup": {
		"fastCombine": false,
		"allowNativeQueries": false,
		"queriesMetadata": {
			"STOCK_LY (DWH)": {
				"queryId": "bdffc4a0-bc90-4661-9ec0-456b5c3454d8",
				"queryName": "STOCK_LY (DWH)",
				"queryGroupId": "877f385b-75ac-4409-9380-300498d2cf53",
				"loadEnabled": true
			},
			"ODBC Registries Connection Source": {
				"queryId": "6f6e1bb7-893c-48ec-851b-307fd30d15c3",
				"queryName": "ODBC Registries Connection Source",
				"queryGroupId": "6ee44b18-0f0c-4ebe-94b3-31101ab49f17"
			},
			"QueryLY": {
				"queryId": "68c4881e-4b42-4187-8246-5fbbd0d8567a",
				"queryName": "QueryLY",
				"queryGroupId": "73db0715-4a81-4f41-b668-af3d300c20d4"
			}
		},
		"document": "section Section1;\r\nshared #\"STOCK_LY (DWH)\" = let\r\n  Source = Odbc.Query(\"dsn=\" & #\"ODBC Registries Connection Source\", QueryLY),\r\n  #\"Renamed Columns\" = Table.RenameColumns(Source, {{\"ANNO_SETTIMANA\", \"ANNO_SETTIMANA_COMP\"}})\r\nin\r\n  #\"Renamed Columns\";\r\nshared #\"ODBC Registries Connection Source\" = let\r\n  Query = \"DBDWHR\" meta [IsParameterQuery = true, IsParameterQueryRequired = true, Type = type text, List = {\"DBDWHR\"}, DefaultValue = \"DBDWHR\"]\r\nin\r\n  Query;\r\nshared QueryLY = let\r\n  Source = \"SELECT   coin.v5wgset2.anno_settimana,#(lf)         coin.vmwgenti.num_ente AS num_ente_prop,#(lf)         coin.vmwgenti.num_ente AS num_ente_gest,#(lf)         coin.vmwgenti.num_ente AS num_ente_dest,#(lf)         '900' AS cod_posizione, --POSIZIONE FISSA#(lf)         coin.v3woarti.cod_subreparto,#(lf)         coin.v3woarti.anno_anz_att     AS anzianita,#(lf)         coin.v3woarti.ind_mod_ricond   AS flg_ricond,#(lf)         Sum(coin.v1wgsars.qta_stf_nor) AS qta_stock,#(lf)         Sum(coin.v1wgsars.qta_stf_nor*(#(lf)         CASE WHEN (coin.v5wgset2.num_eser ) = 0 THEN ( coin.v3woarti.cst_medio_euro )#(lf)         ELSE CASE WHEN (coin.v5wgset2.num_eser ) = 1 THEN ( coin.v3woarti.cst_med_stdl_1 )#(lf)         ELSE CASE WHEN (coin.v5wgset2.num_eser ) = 2 THEN ( coin.v3woarti.cst_med_stdl_2 )#(lf)         ELSE CASE WHEN (coin.v5wgset2.num_eser ) = 3 THEN ( coin.v3woarti.cst_med_stdl_3 )#(lf)         ELSE 0 END END END END )) AS cst_stock,#(lf)         Sum(CASE WHEN coin.v3woarti.prz_orig = 0 THEN (coin.v1wgsars.val_stf_nor)#(lf)         ELSE ((coin.v1wgsars.qta_stf_nor) * coin.v3woarti.prz_orig) END) AS val_stock_orig,#(lf)         Sum(CASE WHEN (CASE WHEN coin.v3woarti.flg_rich_prz IN ('B','F','L','T') THEN 'S' ELSE 'N' END ) = 'S' THEN coin.v1wgsars.val_stf_nor#(lf)         ELSE (coin.v1wgsars.qta_stf_nor * (CASE WHEN (coin.v5wgset2.num_eser ) = 0 THEN ( coin.v3woarti.prz_vend_lire )#(lf)         ELSE CASE WHEN (coin.v5wgset2.num_eser ) = 1 THEN ( coin.v3woarti.prz_med_pnl_1 )#(lf)         ELSE CASE WHEN (coin.v5wgset2.num_eser ) = 2 THEN ( coin.v3woarti.prz_med_pnl_2 )#(lf)         ELSE CASE WHEN (coin.v5wgset2.num_eser ) = 3 THEN ( coin.v3woarti.prz_med_pnl_3 )#(lf)         ELSE 0 END END END END )) END) AS val_stock_pmpa,#(lf)         Sum(coin.v1wgsars.val_stf_nor) AS val_stock_ita,#(lf)         0                              AS val_stock_lc#(lf)#(lf)FROM     coin.v1wgsars,#(lf)         coin.v3woarti,#(lf)         coin.vmwgenti,#(lf)         coin.v5wgset2#(lf)#(lf)WHERE    coin.v3woarti.cod_articolo = coin.v1wgsars.cod_articolo#(lf)AND      coin.vmwgenti.cod_divisione in (2,26,35)#(lf)AND      coin.vmwgenti.num_ente = coin.v1wgsars.num_ente#(lf)AND      coin.v5wgset2.anno_settimana = 201950#(lf)AND      coin.v5wgset2.anno_settimana BETWEEN coin.v1wgsars.anno_sett_iniz AND coin.v1wgsars.anno_sett_fine#(lf)AND      coin.v1wgsars.anno_sett_iniz >= 201806 #(lf)ANd      coin.v3woarti.cod_category in (1, 2, 4, 5, 6, 8, 10, 21, 51, 31, 32, 33, 46, 49, 60, 61, 62, 64)#(lf)AND      (coin.v3woarti.cod_articolo=((coin.v3woarti.cod_articolo)+1)-1)#(lf)AND      coin.v1wgsars.qta_stf_nor <> 0#(lf)#(lf)GROUP BY coin.v5wgset2.anno_settimana,#(lf)         coin.vmwgenti.num_ente,#(lf)         coin.v3woarti.cod_subreparto,#(lf)         coin.v3woarti.anno_anz_att,#(lf)         coin.v3woarti.ind_mod_ricond#(lf)#(lf)FOR FETCH only with ur\"\r\nin\r\n  Source;\r\n"
	},
	"annotations": [
		{
			"name": "pbi:QueryGroups",
			"value": "[{\"id\":\"877f385b-75ac-4409-9380-300498d2cf53\",\"name\":\"Dataflow Tables\",\"description\":null,\"parentId\":null,\"order\":0},{\"id\":\"6ee44b18-0f0c-4ebe-94b3-31101ab49f17\",\"name\":\"Parameters\",\"description\":null,\"parentId\":null,\"order\":1},{\"id\":\"73db0715-4a81-4f41-b668-af3d300c20d4\",\"name\":\"Query\",\"description\":null,\"parentId\":null,\"order\":2}]"
		}
	],
	"entities": [
		{
			"$type": "LocalEntity",
			"name": "STOCK_LY (DWH)",
			"description": "",
			"pbi:refreshPolicy": {
				"$type": "FullRefreshPolicy",
				"location": "STOCK_LY%20%28DWH%29.csv"
			},
			"attributes": [
				{
					"name": "ANNO_SETTIMANA_COMP",
					"dataType": "int64"
				},
				{
					"name": "NUM_ENTE_PROP",
					"dataType": "int64"
				},
				{
					"name": "NUM_ENTE_GEST",
					"dataType": "int64"
				},
				{
					"name": "NUM_ENTE_DEST",
					"dataType": "int64"
				},
				{
					"name": "COD_POSIZIONE",
					"dataType": "string"
				},
				{
					"name": "COD_SUBREPARTO",
					"dataType": "int64"
				},
				{
					"name": "ANZIANITA",
					"dataType": "int64"
				},
				{
					"name": "FLG_RICOND",
					"dataType": "string"
				},
				{
					"name": "QTA_STOCK",
					"dataType": "double"
				},
				{
					"name": "CST_STOCK",
					"dataType": "double"
				},
				{
					"name": "VAL_STOCK_ORIG",
					"dataType": "double"
				},
				{
					"name": "VAL_STOCK_PMPA",
					"dataType": "double"
				},
				{
					"name": "VAL_STOCK_ITA",
					"dataType": "double"
				},
				{
					"name": "VAL_STOCK_LC",
					"dataType": "int64"
				}
			]
		}
	]
}