{
	"name": "Stock - CY (202042)",
	"description": "",
	"version": "1.0",
	"culture": "en-US",
	"modifiedTime": "2019-12-10T13:52:01.7634302+00:00",
	"pbi:mashup": {
		"fastCombine": true,
		"allowNativeQueries": false,
		"queriesMetadata": {
			"STOCK (DB2)": {
				"queryId": "d5b01b42-2a4d-404a-96ac-3fd582094878",
				"queryName": "STOCK (DB2)",
				"queryGroupId": "0e6127f2-c84f-4795-9485-20302f04dc6d",
				"loadEnabled": true
			},
			"ODBC Stock Connection Source": {
				"queryId": "1c9c45a1-bd82-4705-b318-23d6c82ad190",
				"queryName": "ODBC Stock Connection Source",
				"queryGroupId": "b60e4791-3126-4a2e-8bf1-f23704f9a5d2"
			},
			"QueryStock": {
				"queryId": "a5bad59d-bb20-4de9-8bce-12f773928da4",
				"queryName": "QueryStock",
				"queryGroupId": "5bf5536e-4bfa-488a-b361-2dcd5ed3a175"
			}
		},
		"document": "section Section1;\r\nshared #\"STOCK (DB2)\" = let\r\n  Source = Odbc.Query(\"dsn=\" & #\"ODBC Stock Connection Source\", QueryStock),\r\n  #\"Renamed Columns\" = Table.RenameColumns(Source, {{\"ANNO_ANZ_ATTUALE\", \"ANZIANITA\"}, {\"IND_MOD_RICOND\", \"FLG_RICOND\"}})\r\nin\r\n  #\"Renamed Columns\";\r\nshared #\"ODBC Stock Connection Source\" = let\r\n  Query = \"DBHOST\" meta [IsParameterQuery = true, IsParameterQueryRequired = true, Type = type text, List = {\"DBHOST\"}, DefaultValue = \"DBHOST\"]\r\nin\r\n  Query;\r\nshared QueryStock = let\r\n  Source = \"SELECT anno_settimana AS ANNO_SETTIMANA_COMP,#(lf)       num_ente_prop,#(lf)       num_ente_fisico              AS NUM_ENTE_GEST,#(lf)       num_ente_dest,#(lf)       10                           AS COD_POSIZIONE,#(lf)       cod_subreparto,#(lf)       anno_anz_attuale,#(lf)       ind_mod_ricond,#(lf)       Sum(qta_ord_emesso)          AS QTA_STOCK,#(lf)       Sum(val_ord_em_cs_pnl)       AS CST_STOCK,#(lf)       Sum(val_ord_em_pz_org)       AS VAL_STOCK_ORIG,#(lf)       Sum(val_ord_em_pz_pnl)       AS VAL_STOCK_PMPA,#(lf)       Sum(val_ord_em_pz_ita)       AS VAL_STOCK_ITA,#(lf)       Sum(val_ord_em_pz_lc)        AS VAL_STOCK_LC#(lf)#(lf)FROM   host.tvssts2#(lf)where  qta_ord_emesso <> 0#(lf)#(lf)GROUP BY  num_ente_prop,#(lf)          num_ente_fisico,#(lf)          num_ente_dest,#(lf)          cod_subreparto,#(lf)          anno_anz_attuale,#(lf)          ind_mod_ricond,#(lf)          anno_settimana #(lf)#(lf)HAVING Sum(qta_ord_emesso) <> 0#(lf)#(lf)UNION ALL#(lf)#(lf)SELECT anno_settimana AS ANNO_SETTIMANA_COMP,#(lf)       num_ente_prop,#(lf)       num_ente_fisico              AS NUM_ENTE_GEST,#(lf)       num_ente_dest,#(lf)       20                           AS COD_POSIZIONE,#(lf)       cod_subreparto,#(lf)       anno_anz_attuale,#(lf)       ind_mod_ricond,#(lf)       Sum(qta_in_viaggio)          AS QTA_STOCK,#(lf)       Sum(val_in_via_cs_pnl)       AS CST_STOCK,#(lf)       Sum(val_in_via_pz_org)       AS VAL_STOCK_ORIG,#(lf)       Sum(val_in_via_pz_pnl)       AS VAL_STOCK_PMPA,#(lf)       Sum(val_in_via_pz_ita)       AS VAL_STOCK_ITA,#(lf)       Sum(val_in_via_pz_lc)        AS VAL_STOCK_LC#(lf)#(lf)FROM   host.tvssts2#(lf)where  qta_in_viaggio <> 0#(lf)#(lf)GROUP BY  num_ente_prop,#(lf)          num_ente_fisico,#(lf)          num_ente_dest,#(lf)          cod_subreparto,#(lf)          anno_anz_attuale,#(lf)          ind_mod_ricond,#(lf)          anno_settimana#(lf)#(lf)HAVING Sum(qta_in_viaggio) <> 0#(lf)#(lf)UNION ALL#(lf)#(lf)SELECT anno_settimana AS ANNO_SETTIMANA_COMP,#(lf)       num_ente_prop,#(lf)       num_ente_fisico              AS NUM_ENTE_GEST,#(lf)       num_ente_dest,#(lf)       30                           AS COD_POSIZIONE,#(lf)       cod_subreparto,#(lf)       anno_anz_attuale,#(lf)       ind_mod_ricond,#(lf)       Sum(qta_ok_dogana)           AS QTA_STOCK,#(lf)       Sum(val_ok_dog_cs_pnl)       AS CST_STOCK,#(lf)       Sum(val_ok_dog_pz_org)       AS VAL_STOCK_ORIG,#(lf)       Sum(val_ok_dog_pz_pnl)       AS VAL_STOCK_PMPA,#(lf)       Sum(val_ok_dog_pz_ita)       AS VAL_STOCK_ITA,#(lf)       Sum(val_ok_dog_pz_lc)        AS VAL_STOCK_LC#(lf)#(lf)FROM   host.tvssts2#(lf)where  qta_ok_dogana <> 0#(lf)#(lf)GROUP BY  num_ente_prop,#(lf)          num_ente_fisico,#(lf)          num_ente_dest,#(lf)          cod_subreparto,#(lf)          anno_anz_attuale,#(lf)          ind_mod_ricond,#(lf)          anno_settimana#(lf)#(lf)HAVING Sum(qta_ok_dogana) <> 0#(lf)#(lf)UNION ALL#(lf)#(lf)SELECT anno_settimana AS ANNO_SETTIMANA_COMP,#(lf)       num_ente_prop,#(lf)       num_ente_fisico              AS NUM_ENTE_GEST,#(lf)       num_ente_dest,#(lf)       100                          AS COD_POSIZIONE,#(lf)       cod_subreparto,#(lf)       anno_anz_attuale,#(lf)       ind_mod_ricond,#(lf)       Sum(qta_arr_deposito)        AS QTA_STOCK,#(lf)       Sum(val_ar_dep_cs_pnl)       AS CST_STOCK,#(lf)       Sum(val_ar_dep_pz_org)       AS VAL_STOCK_ORIG,#(lf)       Sum(val_ar_dep_pz_pnl)       AS VAL_STOCK_PMPA,#(lf)       Sum(val_ar_dep_pz_ita)       AS VAL_STOCK_ITA,#(lf)       Sum(val_ar_dep_pz_lc)        AS VAL_STOCK_LC#(lf)#(lf)FROM   host.tvssts2#(lf)where  qta_arr_deposito <> 0#(lf)#(lf)GROUP BY  num_ente_prop,#(lf)          num_ente_fisico,#(lf)          num_ente_dest,#(lf)          cod_subreparto,#(lf)          anno_anz_attuale,#(lf)          ind_mod_ricond,#(lf)          anno_settimana#(lf)#(lf)HAVING Sum(qta_arr_deposito) <> 0#(lf)#(lf)UNION ALL#(lf)#(lf)SELECT anno_settimana AS ANNO_SETTIMANA_COMP,#(lf)       num_ente_prop,#(lf)       num_ente_fisico              AS NUM_ENTE_GEST,#(lf)       num_ente_dest,#(lf)       110                          AS COD_POSIZIONE,#(lf)       cod_subreparto,#(lf)       anno_anz_attuale,#(lf)       ind_mod_ricond,#(lf)       Sum(qta_indiv_blocc)         AS QTA_STOCK,#(lf)       Sum(val_in_blo_cs_pnl)       AS CST_STOCK,#(lf)       Sum(val_in_blo_pz_org)       AS VAL_STOCK_ORIG,#(lf)       Sum(val_in_blo_pz_pnl)       AS VAL_STOCK_PMPA,#(lf)       Sum(val_in_blo_pz_ita)       AS VAL_STOCK_ITA,#(lf)       Sum(val_in_blo_pz_lc)        AS VAL_STOCK_LC#(lf)#(lf)FROM   host.tvssts2#(lf)where  qta_indiv_blocc <> 0#(lf)#(lf)GROUP BY  num_ente_prop,#(lf)          num_ente_fisico,#(lf)          num_ente_dest,#(lf)          cod_subreparto,#(lf)          anno_anz_attuale,#(lf)          ind_mod_ricond,#(lf)          anno_settimana#(lf)#(lf)HAVING Sum(qta_indiv_blocc) <> 0#(lf)#(lf)UNION ALL#(lf)#(lf)SELECT anno_settimana AS ANNO_SETTIMANA_COMP,#(lf)       num_ente_prop,#(lf)       num_ente_fisico              AS NUM_ENTE_GEST,#(lf)       num_ente_dest,#(lf)       120                          AS COD_POSIZIONE,#(lf)       cod_subreparto,#(lf)       anno_anz_attuale,#(lf)       ind_mod_ricond,#(lf)       Sum(qta_indivisa)            AS QTA_STOCK,#(lf)       Sum(val_indiv_cs_pnl)        AS CST_STOCK,#(lf)       Sum(val_indiv_pz_org)        AS VAL_STOCK_ORIG,#(lf)       Sum(val_indiv_pz_pnl)        AS VAL_STOCK_PMPA,#(lf)       Sum(val_indiv_pz_ita)        AS VAL_STOCK_ITA,#(lf)       Sum(val_indiv_pz_lc)         AS VAL_STOCK_LC#(lf)#(lf)FROM   host.tvssts2#(lf)where  qta_indivisa <> 0#(lf)#(lf)GROUP BY  num_ente_prop,#(lf)          num_ente_fisico,#(lf)          num_ente_dest,#(lf)          cod_subreparto,#(lf)          anno_anz_attuale,#(lf)          ind_mod_ricond,#(lf)          anno_settimana#(lf)#(lf)HAVING Sum(qta_indivisa) <> 0#(lf)#(lf)UNION ALL#(lf)#(lf)SELECT anno_settimana AS ANNO_SETTIMANA_COMP,#(lf)       num_ente_prop,#(lf)       num_ente_fisico              AS NUM_ENTE_GEST,#(lf)       num_ente_dest,#(lf)       130                          AS COD_POSIZIONE,#(lf)       cod_subreparto,#(lf)       anno_anz_attuale,#(lf)       ind_mod_ricond,#(lf)       Sum(qta_box_cliente)         AS QTA_STOCK,#(lf)       Sum(val_box_cl_cs_pnl)       AS CST_STOCK,#(lf)       Sum(val_box_cl_pz_org)       AS VAL_STOCK_ORIG,#(lf)       Sum(val_box_cl_pz_pnl)       AS VAL_STOCK_PMPA,#(lf)       Sum(val_box_cl_pz_ita)       AS VAL_STOCK_ITA,#(lf)       Sum(val_box_cl_pz_lc)        AS VAL_STOCK_LC#(lf)#(lf)FROM   host.tvssts2#(lf)where  qta_box_cliente <> 0#(lf)#(lf)GROUP BY  num_ente_prop,#(lf)          num_ente_fisico,#(lf)          num_ente_dest,#(lf)          cod_subreparto,#(lf)          anno_anz_attuale,#(lf)          ind_mod_ricond,#(lf)          anno_settimana#(lf)#(lf)HAVING Sum(qta_box_cliente) <> 0#(lf)#(lf)UNION ALL#(lf)#(lf)SELECT anno_settimana AS ANNO_SETTIMANA_COMP,#(lf)       num_ente_prop,#(lf)       num_ente_fisico              AS NUM_ENTE_GEST,#(lf)       num_ente_dest,#(lf)       140                          AS COD_POSIZIONE,#(lf)       cod_subreparto,#(lf)       anno_anz_attuale,#(lf)       ind_mod_ricond,#(lf)       Sum(qta_rich_prenot)         AS QTA_STOCK,#(lf)       Sum(val_ri_pre_cs_pnl)       AS CST_STOCK,#(lf)       Sum(val_ri_pre_pz_org)       AS VAL_STOCK_ORIG,#(lf)       Sum(val_ri_pre_pz_pnl)       AS VAL_STOCK_PMPA,#(lf)       Sum(val_ri_pre_pz_ita)       AS VAL_STOCK_ITA,#(lf)       Sum(val_ri_pre_pz_lc)        AS VAL_STOCK_LC#(lf)#(lf)FROM   host.tvssts2#(lf)where  qta_rich_prenot <> 0#(lf)#(lf)GROUP BY  num_ente_prop,#(lf)          num_ente_fisico,#(lf)          num_ente_dest,#(lf)          cod_subreparto,#(lf)          anno_anz_attuale,#(lf)          ind_mod_ricond,#(lf)          anno_settimana#(lf)#(lf)HAVING Sum(qta_rich_prenot) <> 0#(lf)#(lf)UNION ALL#(lf)#(lf)SELECT anno_settimana AS ANNO_SETTIMANA_COMP,#(lf)       num_ente_prop,#(lf)       num_ente_fisico              AS NUM_ENTE_GEST,#(lf)       num_ente_dest,#(lf)       150                          AS COD_POSIZIONE,#(lf)       cod_subreparto,#(lf)       anno_anz_attuale,#(lf)       ind_mod_ricond,#(lf)       Sum(qta_ferma_lavor)         AS QTA_STOCK,#(lf)       Sum(val_fe_lav_cs_pnl)       AS CST_STOCK,#(lf)       Sum(val_fe_lav_pz_org)       AS VAL_STOCK_ORIG,#(lf)       Sum(val_fe_lav_pz_pnl)       AS VAL_STOCK_PMPA,#(lf)       Sum(val_fe_lav_pz_ita)       AS VAL_STOCK_ITA,#(lf)       Sum(val_fe_lav_pz_lc)        AS VAL_STOCK_LC#(lf)#(lf)FROM   host.tvssts2#(lf)where  qta_ferma_lavor <> 0#(lf)#(lf)GROUP BY  num_ente_prop,#(lf)          num_ente_fisico,#(lf)          num_ente_dest,#(lf)          cod_subreparto,#(lf)          anno_anz_attuale,#(lf)          ind_mod_ricond,#(lf)          anno_settimana#(lf)#(lf)HAVING Sum(qta_ferma_lavor) <> 0#(lf)#(lf)UNION ALL#(lf)#(lf)SELECT anno_settimana AS ANNO_SETTIMANA_COMP,#(lf)       num_ente_prop,#(lf)       num_ente_fisico              AS NUM_ENTE_GEST,#(lf)       num_ente_dest,#(lf)       160                          AS COD_POSIZIONE,#(lf)       cod_subreparto,#(lf)       anno_anz_attuale,#(lf)       ind_mod_ricond,#(lf)       Sum(qta_box_cli_blocc)       AS QTA_STOCK,#(lf)       Sum(val_bx_blo_cs_pnl)       AS CST_STOCK,#(lf)       Sum(val_bx_blo_pz_org)       AS VAL_STOCK_ORIG,#(lf)       Sum(val_bx_blo_pz_pnl)       AS VAL_STOCK_PMPA,#(lf)       Sum(val_bx_blo_pz_ita)       AS VAL_STOCK_ITA,#(lf)       Sum(val_bx_blo_pz_lc)        AS VAL_STOCK_LC#(lf)#(lf)FROM   host.tvssts2#(lf)where  qta_box_cli_blocc <> 0#(lf)#(lf)#(lf)GROUP BY  num_ente_prop,#(lf)          num_ente_fisico,#(lf)          num_ente_dest,#(lf)          cod_subreparto,#(lf)          anno_anz_attuale,#(lf)          ind_mod_ricond,#(lf)          anno_settimana#(lf)#(lf)HAVING Sum(qta_box_cli_blocc) <> 0#(lf)#(lf)UNION ALL#(lf)#(lf)SELECT anno_settimana AS ANNO_SETTIMANA_COMP,#(lf)       num_ente_prop,#(lf)       num_ente_fisico              AS NUM_ENTE_GEST,#(lf)       num_ente_dest,#(lf)       190                          AS COD_POSIZIONE,#(lf)       cod_subreparto,#(lf)       anno_anz_attuale,#(lf)       ind_mod_ricond,#(lf)       Sum(qta_usc_deposito)        AS QTA_STOCK,#(lf)       Sum(val_us_dep_cs_pnl)       AS CST_STOCK,#(lf)       Sum(val_us_dep_pz_org)       AS VAL_STOCK_ORIG,#(lf)       Sum(val_us_dep_pz_pnl)       AS VAL_STOCK_PMPA,#(lf)       Sum(val_us_dep_pz_ita)       AS VAL_STOCK_ITA,#(lf)       Sum(val_us_dep_pz_lc)        AS VAL_STOCK_LC#(lf)#(lf)FROM   host.tvssts2#(lf)where  qta_usc_deposito <> 0#(lf)#(lf)GROUP BY  num_ente_prop,#(lf)          num_ente_fisico,#(lf)          num_ente_dest,#(lf)          cod_subreparto,#(lf)          anno_anz_attuale,#(lf)          ind_mod_ricond,#(lf)          anno_settimana#(lf)#(lf)HAVING Sum(qta_usc_deposito) <> 0#(lf)#(lf)UNION ALL#(lf)#(lf)SELECT anno_settimana AS ANNO_SETTIMANA_COMP,#(lf)       num_ente_prop,#(lf)       num_ente_fisico              AS NUM_ENTE_GEST,#(lf)       num_ente_dest,#(lf)       200                          AS COD_POSIZIONE,#(lf)       cod_subreparto,#(lf)       anno_anz_attuale,#(lf)       ind_mod_ricond,#(lf)       Sum(qta_in_transito)         AS QTA_STOCK,#(lf)       Sum(val_in_tra_cs_pnl)       AS CST_STOCK,#(lf)       Sum(val_in_tra_pz_org)       AS VAL_STOCK_ORIG,#(lf)       Sum(val_in_tra_pz_pnl)       AS VAL_STOCK_PMPA,#(lf)       Sum(val_in_tra_pz_ita)       AS VAL_STOCK_ITA,#(lf)       Sum(val_in_tra_pz_lc)        AS VAL_STOCK_LC#(lf)#(lf)FROM   host.tvssts2#(lf)where  qta_in_transito <> 0#(lf)#(lf)GROUP BY  num_ente_prop,#(lf)          num_ente_fisico,#(lf)          num_ente_dest,#(lf)          cod_subreparto,#(lf)          anno_anz_attuale,#(lf)          ind_mod_ricond,#(lf)          anno_settimana#(lf)#(lf)HAVING Sum(qta_in_transito) <> 0#(lf)#(lf)UNION ALL#(lf)#(lf)SELECT anno_settimana AS ANNO_SETTIMANA_COMP,#(lf)       num_ente_prop,#(lf)       num_ente_fisico              AS NUM_ENTE_GEST,#(lf)       num_ente_dest,#(lf)       210                          AS COD_POSIZIONE,#(lf)       cod_subreparto,#(lf)       anno_anz_attuale,#(lf)       ind_mod_ricond,#(lf)       Sum(qta_prenot_omnich)       AS QTA_STOCK,#(lf)       Sum(val_pr_omn_cs_pnl)       AS CST_STOCK,#(lf)       Sum(val_pr_omn_pz_org)       AS VAL_STOCK_ORIG,#(lf)       Sum(val_pr_omn_pz_pnl)       AS VAL_STOCK_PMPA,#(lf)       Sum(val_pr_omn_pz_ita)       AS VAL_STOCK_ITA,#(lf)       Sum(val_pr_omn_pz_lc)        AS VAL_STOCK_LC#(lf)#(lf)FROM   host.tvssts2#(lf)where  qta_prenot_omnich <> 0#(lf)#(lf)GROUP BY  num_ente_prop,#(lf)          num_ente_fisico,#(lf)          num_ente_dest,#(lf)          cod_subreparto,#(lf)          anno_anz_attuale,#(lf)          ind_mod_ricond,#(lf)          anno_settimana#(lf)#(lf)HAVING Sum(qta_prenot_omnich) <> 0#(lf)#(lf)UNION ALL#(lf)#(lf)SELECT anno_settimana AS ANNO_SETTIMANA_COMP,#(lf)       num_ente_prop,#(lf)       num_ente_fisico              AS NUM_ENTE_GEST,#(lf)       num_ente_dest,#(lf)       220                          AS COD_POSIZIONE,#(lf)       cod_subreparto,#(lf)       anno_anz_attuale,#(lf)       ind_mod_ricond,#(lf)       Sum(qta_conserv_neg)         AS QTA_STOCK,#(lf)       Sum(val_cn_neg_cs_pnl)       AS CST_STOCK,#(lf)       Sum(val_cn_neg_pz_org)       AS VAL_STOCK_ORIG,#(lf)       Sum(val_cn_neg_pz_pnl)       AS VAL_STOCK_PMPA,#(lf)       Sum(val_cn_neg_pz_ita)       AS VAL_STOCK_ITA,#(lf)       Sum(val_cn_neg_pz_lc)        AS VAL_STOCK_LC#(lf)#(lf)FROM   host.tvssts2#(lf)where  qta_conserv_neg <> 0#(lf)#(lf)GROUP BY  num_ente_prop,#(lf)          num_ente_fisico,#(lf)          num_ente_dest,#(lf)          cod_subreparto,#(lf)          anno_anz_attuale,#(lf)          ind_mod_ricond,#(lf)          anno_settimana#(lf)#(lf)HAVING Sum(qta_conserv_neg) <> 0#(lf)#(lf)UNION ALL#(lf)#(lf)SELECT anno_settimana AS ANNO_SETTIMANA_COMP,#(lf)       num_ente_prop,#(lf)       num_ente_fisico              AS NUM_ENTE_GEST,#(lf)       num_ente_dest,#(lf)       230                          AS COD_POSIZIONE,#(lf)       cod_subreparto,#(lf)       anno_anz_attuale,#(lf)       ind_mod_ricond,#(lf)       Sum(qta_in_riserva)          AS QTA_STOCK,#(lf)       Sum(val_in_ris_cs_pnl)       AS CST_STOCK,#(lf)       Sum(val_in_ris_pz_org)       AS VAL_STOCK_ORIG,#(lf)       Sum(val_in_ris_pz_pnl)       AS VAL_STOCK_PMPA,#(lf)       Sum(val_in_ris_pz_ita)       AS VAL_STOCK_ITA,#(lf)       Sum(val_in_ris_pz_lc)        AS VAL_STOCK_LC#(lf)#(lf)FROM   host.tvssts2#(lf)where  qta_in_riserva <> 0#(lf)#(lf)GROUP BY  num_ente_prop,#(lf)          num_ente_fisico,#(lf)          num_ente_dest,#(lf)          cod_subreparto,#(lf)          anno_anz_attuale,#(lf)          ind_mod_ricond,#(lf)          anno_settimana#(lf)#(lf)HAVING Sum(qta_in_riserva) <> 0#(lf)#(lf)UNION ALL#(lf)#(lf)SELECT anno_settimana AS ANNO_SETTIMANA_COMP,#(lf)       num_ente_prop,#(lf)       num_ente_fisico              AS NUM_ENTE_GEST,#(lf)       num_ente_dest,#(lf)       250                          AS COD_POSIZIONE,#(lf)       cod_subreparto,#(lf)       anno_anz_attuale,#(lf)       ind_mod_ricond,#(lf)       Sum(qta_in_vendita)          AS QTA_STOCK,#(lf)       Sum(val_in_ven_cs_pnl)       AS CST_STOCK,#(lf)       Sum(val_in_ven_pz_org)       AS VAL_STOCK_ORIG,#(lf)       Sum(val_in_ven_pz_pnl)       AS VAL_STOCK_PMPA,#(lf)       Sum(val_in_ven_pz_ita)       AS VAL_STOCK_ITA,#(lf)       Sum(val_in_ven_pz_lc)        AS VAL_STOCK_LC#(lf)#(lf)FROM   host.tvssts2#(lf)where  qta_in_vendita <> 0#(lf)#(lf)GROUP BY  num_ente_prop,#(lf)          num_ente_fisico,#(lf)          num_ente_dest,#(lf)          cod_subreparto,#(lf)          anno_anz_attuale,#(lf)          ind_mod_ricond,#(lf)          anno_settimana#(lf)#(lf)HAVING Sum(qta_in_vendita) <> 0#(lf)#(lf)UNION ALL#(lf)#(lf)SELECT anno_settimana AS ANNO_SETTIMANA_COMP,#(lf)       num_ente_prop,#(lf)       num_ente_fisico              AS NUM_ENTE_GEST,#(lf)       num_ente_dest,#(lf)       260                          AS COD_POSIZIONE,#(lf)       cod_subreparto,#(lf)       anno_anz_attuale,#(lf)       ind_mod_ricond,#(lf)       Sum(qta_prenot_tms)          AS QTA_STOCK,#(lf)       Sum(val_pr_tms_cs_pnl)       AS CST_STOCK,#(lf)       Sum(val_pr_tms_pz_org)       AS VAL_STOCK_ORIG,#(lf)       Sum(val_pr_tms_pz_pnl)       AS VAL_STOCK_PMPA,#(lf)       Sum(val_pr_tms_pz_ita)       AS VAL_STOCK_ITA,#(lf)       Sum(val_pr_tms_pz_lc)        AS VAL_STOCK_LC#(lf)#(lf)FROM   host.tvssts2#(lf)where  qta_prenot_tms <> 0#(lf)#(lf)GROUP BY  num_ente_prop,#(lf)          num_ente_fisico,#(lf)          num_ente_dest,#(lf)          cod_subreparto,#(lf)          anno_anz_attuale,#(lf)          ind_mod_ricond,#(lf)          anno_settimana#(lf)#(lf)HAVING Sum(qta_prenot_tms) <> 0#(lf)#(lf)UNION ALL#(lf)#(lf)SELECT anno_settimana AS ANNO_SETTIMANA_COMP,#(lf)       num_ente_prop,#(lf)       num_ente_fisico              AS NUM_ENTE_GEST,#(lf)       num_ente_dest,#(lf)       270                          AS COD_POSIZIONE,#(lf)       cod_subreparto,#(lf)       anno_anz_attuale,#(lf)       ind_mod_ricond,#(lf)       Sum(qta_varie)               AS QTA_STOCK,#(lf)       Sum(val_varie_cs_pnl)        AS CST_STOCK,#(lf)       Sum(val_varie_pz_org)        AS VAL_STOCK_ORIG,#(lf)       Sum(val_varie_pz_pnl)        AS VAL_STOCK_PMPA,#(lf)       Sum(val_varie_pz_ita)        AS VAL_STOCK_ITA,#(lf)       Sum(val_varie_pz_lc)         AS VAL_STOCK_LC#(lf)#(lf)FROM   host.tvssts2#(lf)where  qta_varie <> 0#(lf)#(lf)GROUP BY  num_ente_prop,#(lf)          num_ente_fisico,#(lf)          num_ente_dest,#(lf)          cod_subreparto,#(lf)          anno_anz_attuale,#(lf)          ind_mod_ricond,#(lf)          anno_settimana#(lf)#(lf)HAVING Sum(qta_varie) <> 0#(lf)#(lf)UNION ALL#(lf)#(lf)SELECT anno_settimana AS ANNO_SETTIMANA_COMP,#(lf)       num_ente_prop,#(lf)       num_ente_fisico              AS NUM_ENTE_GEST,#(lf)       num_ente_dest,#(lf)       250                          AS COD_POSIZIONE,#(lf)       cod_subreparto,#(lf)       anno_anz_attuale,#(lf)       ind_mod_ricond,#(lf)       Sum(qta_art_fasullo)         AS QTA_STOCK,#(lf)       Sum(val_cst_art_fasul)       AS CST_STOCK,#(lf)       Sum(val_ven_art_fasul)       AS VAL_STOCK_ORIG,#(lf)       Sum(val_ven_art_fasul)       AS VAL_STOCK_PMPA,#(lf)       Sum(val_ven_art_fasul)       AS VAL_STOCK_ITA,#(lf)       0                            AS VAL_STOCK_LC#(lf)#(lf)FROM   host.tvssts2#(lf)where  qta_art_fasullo <> 0#(lf)#(lf)#(lf)GROUP BY  num_ente_prop,#(lf)          num_ente_fisico,#(lf)          num_ente_dest,#(lf)          cod_subreparto,#(lf)          anno_anz_attuale,#(lf)          ind_mod_ricond,#(lf)          anno_settimana#(lf)#(lf)HAVING Sum(qta_art_fasullo) <> 0#(lf)#(lf) #(lf)#(lf)WITH UR\"\r\nin\r\n  Source;\r\n"
	},
	"annotations": [
		{
			"name": "pbi:QueryGroups",
			"value": "[{\"id\":\"b60e4791-3126-4a2e-8bf1-f23704f9a5d2\",\"name\":\"Parameters\",\"description\":null,\"parentId\":null,\"order\":2},{\"id\":\"5bf5536e-4bfa-488a-b361-2dcd5ed3a175\",\"name\":\"Queries\",\"description\":null,\"parentId\":null,\"order\":3},{\"id\":\"0e6127f2-c84f-4795-9485-20302f04dc6d\",\"name\":\"Dataset Tables\",\"description\":null,\"parentId\":null,\"order\":0}]"
		}
	],
	"entities": [
		{
			"$type": "LocalEntity",
			"name": "STOCK (DB2)",
			"description": "",
			"pbi:refreshPolicy": {
				"$type": "FullRefreshPolicy",
				"location": "STOCK%20%28DB2%29.csv"
			},
			"attributes": [
				{
					"name": "ANNO_SETTIMANA_COMP",
					"dataType": "int64"
				},
				{
					"name": "NUM_ENTE_PROP",
					"dataType": "int64"
				},
				{
					"name": "NUM_ENTE_GEST",
					"dataType": "int64"
				},
				{
					"name": "NUM_ENTE_DEST",
					"dataType": "int64"
				},
				{
					"name": "COD_POSIZIONE",
					"dataType": "int64"
				},
				{
					"name": "COD_SUBREPARTO",
					"dataType": "int64"
				},
				{
					"name": "ANZIANITA",
					"dataType": "int64"
				},
				{
					"name": "FLG_RICOND",
					"dataType": "string"
				},
				{
					"name": "QTA_STOCK",
					"dataType": "double"
				},
				{
					"name": "CST_STOCK",
					"dataType": "double"
				},
				{
					"name": "VAL_STOCK_ORIG",
					"dataType": "double"
				},
				{
					"name": "VAL_STOCK_PMPA",
					"dataType": "double"
				},
				{
					"name": "VAL_STOCK_ITA",
					"dataType": "double"
				},
				{
					"name": "VAL_STOCK_LC",
					"dataType": "double"
				}
			]
		}
	]
}